\relax 
\providecommand\hyper@newdestlabel[2]{}
\providecommand\HyperFirstAtBeginDocument{\AtBeginDocument}
\HyperFirstAtBeginDocument{\ifx\hyper@anchor\@undefined
\global\let\oldcontentsline\contentsline
\gdef\contentsline#1#2#3#4{\oldcontentsline{#1}{#2}{#3}}
\global\let\oldnewlabel\newlabel
\gdef\newlabel#1#2{\newlabelxx{#1}#2}
\gdef\newlabelxx#1#2#3#4#5#6{\oldnewlabel{#1}{{#2}{#3}}}
\AtEndDocument{\ifx\hyper@anchor\@undefined
\let\contentsline\oldcontentsline
\let\newlabel\oldnewlabel
\fi}
\fi}
\global\let\hyper@last\relax 
\gdef\HyperFirstAtBeginDocument#1{#1}
\providecommand\HyField@AuxAddToFields[1]{}
\providecommand\HyField@AuxAddToCoFields[2]{}
\@writefile{toc}{\contentsline {section}{\numberline {1}Introduction}{1}{section.1}\protected@file@percent }
\@writefile{toc}{\contentsline {subsection}{\numberline {1.1}Start up application}{1}{subsection.1.1}\protected@file@percent }
\@writefile{toc}{\contentsline {section}{\numberline {2}Architecture}{1}{section.2}\protected@file@percent }
\newlabel{architectures}{{2}{1}{Architecture}{section.2}{}}
\@writefile{lof}{\contentsline {figure}{\numberline {1}{\ignorespaces The working of the Model-View-Controller for the blog-like website.}}{2}{figure.1}\protected@file@percent }
\@writefile{toc}{\contentsline {subsection}{\numberline {2.1}Scenario 1: Registering an account}{2}{subsection.2.1}\protected@file@percent }
\@writefile{toc}{\contentsline {subsection}{\numberline {2.2}Scenario 2: Adding a new post}{2}{subsection.2.2}\protected@file@percent }
\@writefile{lof}{\contentsline {figure}{\numberline {2}{\ignorespaces The submission form to create a new blog post.}}{2}{figure.2}\protected@file@percent }
\@writefile{toc}{\contentsline {subsection}{\numberline {2.3}Scenario 3: Commenting on a post}{3}{subsection.2.3}\protected@file@percent }
\@writefile{lof}{\contentsline {figure}{\numberline {3}{\ignorespaces An overview of the posts on the platform.}}{3}{figure.3}\protected@file@percent }
\@writefile{lof}{\contentsline {figure}{\numberline {4}{\ignorespaces A detailed view of a blog post, including its comments.}}{3}{figure.4}\protected@file@percent }
\@writefile{toc}{\contentsline {subsection}{\numberline {2.4}Scenario 4: Sorting the posts}{3}{subsection.2.4}\protected@file@percent }
\@writefile{lof}{\contentsline {figure}{\numberline {5}{\ignorespaces The posts are sorted by their vote.}}{4}{figure.5}\protected@file@percent }
\@writefile{toc}{\contentsline {section}{\numberline {3}Functionalities}{4}{section.3}\protected@file@percent }
\@writefile{toc}{\contentsline {subsection}{\numberline {3.1}Views}{4}{subsection.3.1}\protected@file@percent }
\@writefile{toc}{\contentsline {subsection}{\numberline {3.2}Controllers}{4}{subsection.3.2}\protected@file@percent }
\@writefile{toc}{\contentsline {subsection}{\numberline {3.3}Models}{5}{subsection.3.3}\protected@file@percent }
\newlabel{functionalities}{{3.3}{5}{Models}{subsection.3.3}{}}
